…
``` r
pred_samp_us <- aggregate_forecast(pred_samp, tags=tibble_row(location="US"))
```

The national predictions can simply be added to the state predictions,
before or after summarizing, to produce national quantile forecasts:

``` r
pred_samp |> 
    bind_rows(pred_samp_us) |> 
    summarize_quantiles()
```

    ## # A tibble: 1,060 × 6
    ##    date       location horizon  mean quantile value
    ##    <date>     <chr>      <int> <dbl>    <dbl> <dbl>
    ##  1 2023-12-16 Alabama        1 125.     0.025  63  
    ##  2 2023-12-16 Alabama        1 125.     0.25   97  
    ##  3 2023-12-16 Alabama        1 125.     0.5   121  
    ##  4 2023-12-16 Alabama        1 125.     0.75  148  
    ##  5 2023-12-16 Alabama        1 125.     0.975 216. 
    ##  6 2023-12-16 Alaska         1  19.6    0.025   5  
    ##  7 2023-12-16 Alaska         1  19.6    0.25   12  
    ##  8 2023-12-16 Alaska         1  19.6    0.5    17  
    ##  9 2023-12-16 Alaska         1  19.6    0.75   24  
    ## 10 2023-12-16 Alaska         1  19.6    0.975  48.0
    ## # ℹ 1,050 more rows
…
